\relax 
\citation{whatiscloud}
\citation{whatiscloud}
\citation{whatiscloud}
\citation{whatiscloud}
\citation{whatiscloud}
\@writefile{toc}{\contentsline {section}{\numberline {I}Introduction}{1}}
\@writefile{toc}{\contentsline {subsection}{\numberline {\unhbox \voidb@x \hbox {I-A}}Cloud Computing Overview}{1}}
\@writefile{toc}{\contentsline {subsubsection}{\numberline {\unhbox \voidb@x \hbox {I-A}1}Infrastructure As A Service (IaaS}{1}}
\@writefile{toc}{\contentsline {subsubsection}{\numberline {\unhbox \voidb@x \hbox {I-A}2}Platform As A Service (PaaS)}{1}}
\@writefile{toc}{\contentsline {subsubsection}{\numberline {\unhbox \voidb@x \hbox {I-A}3}Application As A Service (AaaS}{1}}
\@writefile{lof}{\contentsline {figure}{\numberline {1}{\ignorespaces The basic cloud computing service models, CC BY-SA 3.0}}{1}}
\newlabel{fig:cloudcomp}{{1}{1}}
\@writefile{toc}{\contentsline {section}{\numberline {II}Software Design Considerations}{1}}
\citation{fos}
\citation{fos}
\citation{cloud elastic}
\citation{cloud elastic}
\citation{mobile ownership}
\citation{Yu1}
\citation{lirs}
\citation{UnderstandingLinuxKernel}
\citation{lirs}
\citation{lirs}
\citation{mysql}
\citation{lirs}
\citation{io qos}
\citation{intelliqos}
\citation{cloudhw}
\citation{best}
\@writefile{toc}{\contentsline {subsection}{\numberline {\unhbox \voidb@x \hbox {II-A}}Operating System Design}{2}}
\@writefile{toc}{\contentsline {subsubsection}{\numberline {\unhbox \voidb@x \hbox {II-A}1}Scalability}{2}}
\@writefile{toc}{\contentsline {subsubsection}{\numberline {\unhbox \voidb@x \hbox {II-A}2}Heterogeneity}{2}}
\@writefile{toc}{\contentsline {subsection}{\numberline {\unhbox \voidb@x \hbox {II-B}}Resource Allocation Strategies in Cloud Computing}{2}}
\@writefile{toc}{\contentsline {subsubsection}{\numberline {\unhbox \voidb@x \hbox {II-B}1}Cache Management}{2}}
\@writefile{toc}{\contentsline {subsubsection}{\numberline {\unhbox \voidb@x \hbox {II-B}2}I/O Scheduling}{2}}
\@writefile{toc}{\contentsline {section}{\numberline {III}Datacenter and Hardware Design}{2}}
\citation{challenges}
\citation{dcnetarch}
\citation{dcnetarch}
\citation{cisco cloud}
\citation{ip4 fibrechannel}
\citation{hp}
\citation{hp}
\citation{ip4 fibrechannel}
\citation{ip4 fibrechannel}
\citation{ip4 fibrechannel}
\citation{CloudSecurity}
\citation{CloudThreats}
\citation{TopThreats}
\@writefile{lof}{\contentsline {figure}{\numberline {2}{\ignorespaces Simple overview of virtualization}}{3}}
\newlabel{fig:virtualization}{{2}{3}}
\@writefile{toc}{\contentsline {subsection}{\numberline {\unhbox \voidb@x \hbox {III-A}}Network Design}{3}}
\@writefile{toc}{\contentsline {subsection}{\numberline {\unhbox \voidb@x \hbox {III-B}}Storage Design Considerations}{3}}
\@writefile{lof}{\contentsline {figure}{\numberline {3}{\ignorespaces Three-layered cloud network architecture}}{3}}
\newlabel{fig:cloudarch}{{3}{3}}
\@writefile{lof}{\contentsline {figure}{\numberline {4}{\ignorespaces Simple three-layered architecture using fat tree topology}}{3}}
\newlabel{fig:fattree}{{4}{3}}
\@writefile{toc}{\contentsline {subsubsection}{\numberline {\unhbox \voidb@x \hbox {III-B}1}Block Level Storage}{3}}
\@writefile{toc}{\contentsline {subsubsection}{\numberline {\unhbox \voidb@x \hbox {III-B}2}Storage Networking Technology}{3}}
\citation{cloudtrust}
\citation{cloudtrust}
\citation{cloudtrust}
\citation{cloudtrust}
\bibcite{challenges}{1}
\bibcite{best}{2}
\bibcite{dcnetarch}{3}
\bibcite{cloudhw}{4}
\bibcite{SLA}{5}
\bibcite{lirs}{6}
\bibcite{intelliqos}{7}
\bibcite{cisco cloud}{8}
\bibcite{ip4 fibrechannel}{9}
\bibcite{secure fibrechannel}{10}
\bibcite{fos}{11}
\bibcite{cloud elastic}{12}
\bibcite{mobile ownership}{13}
\bibcite{Yu1}{14}
\bibcite{UnderstandingLinuxKernel}{15}
\@writefile{lof}{\contentsline {figure}{\numberline {5}{\ignorespaces A sample fibre channel SAN configuration}}{4}}
\newlabel{fig:fibre}{{5}{4}}
\@writefile{toc}{\contentsline {section}{\numberline {IV}Security}{4}}
\@writefile{toc}{\contentsline {subsection}{\numberline {\unhbox \voidb@x \hbox {IV-A}}Public Key Cryptography}{4}}
\@writefile{toc}{\contentsline {subsubsection}{\numberline {\unhbox \voidb@x \hbox {IV-A}1}Symmetric Key Encryption}{4}}
\@writefile{toc}{\contentsline {subsubsection}{\numberline {\unhbox \voidb@x \hbox {IV-A}2}Asymmetric Key Encryption}{4}}
\@writefile{lof}{\contentsline {figure}{\numberline {6}{\ignorespaces A sample fibre channel SAN configuration}}{4}}
\newlabel{fig:publickey}{{6}{4}}
\@writefile{toc}{\contentsline {section}{References}{4}}
\bibcite{hp}{16}
\bibcite{io qos}{17}
\bibcite{CloudSecurity}{18}
\bibcite{CloudThreats}{19}
\bibcite{TopThreats}{20}
\bibcite{mysql}{21}
\bibcite{cloudtrust}{22}
\bibcite{whatiscloud}{23}
